Lab 04a: Exploring data with `dplyr` • ENVS475
…
Filter rows with filter()

Many rows to fewer rows

filter() allows you to select a subset of rows in a data
frame. The first argument is the name of the data frame. The second and
subsequent arguments are the expressions that filter the data frame.

Filter rows based on numeric data

For example, we can select all star wars characters who are greater
than or equal to 180 cm tall with:

filter(starwars, height >= 180)
#> # A tibble: 44 × 14
#>   name      height  mass hair_color skin_color eye_color birth_year sex   gender
#>   <chr>      <int> <dbl> <chr>      <chr>      <chr>          <dbl> <chr> <chr> 
#> 1 Darth Va…    202   136 none       white      yellow          41.9 male  mascu…
#> 2 Biggs Da…    183    84 black      light      brown           24   male  mascu…
#> 3 Obi-Wan …    182    77 auburn, w… fair       blue-gray       57   male  mascu…
#> 4 Anakin S…    188    84 blond      fair       blue            41.9 male  mascu…
#> # ℹ 40 more rows
#> # ℹ 5 more variables: homeworld <chr>, species <chr>, films <list>,
#> #   vehicles <list>, starships <list>
…
This makes sense, because we are only asking for star wars
characters taller than a number.

It’s always a good idea to double check that the size of the
returned data makes sense.

The use of ==

if we wanted to know which characters were exactly 180 cm,
we use the following:

filter(starwars, height == 180)
#> # A tibble: 5 × 14
#>   name      height  mass hair_color skin_color eye_color birth_year sex   gender
#>   <chr>      <int> <dbl> <chr>      <chr>      <chr>          <dbl> <chr> <chr> 
#> 1 Wilhuff …    180    NA auburn, g… fair       blue              64 male  mascu…
#> 2 Han Solo     180    80 brown      fair       brown             29 male  mascu…
#> 3 Jek Tono…    180   110 brown      fair       blue              NA NA    NA    
#> 4 Ackbar       180    83 none       brown mot… orange            41 male  mascu…
#> # ℹ 1 more row
#> # ℹ 5 more variables: homeworld <chr>, species <chr>, films <list>,
#> #   vehicles <list>, starships <list>
…
The single = is another way of assigning a
value to an object in R. For example a = 5 stores the value
of 5 inside of the object called a.

Filtering rows based on character data

In the example above, we were filtering observations based on numeric
data (i.e., height >= 150). Filter also works with
character data types. For example, let’s extract all of the star wars
characters that are from Naboo, which is stored in the
homeworld column

filter(starwars, homeworld == "Naboo")
#> # A tibble: 11 × 14
#>   name      height  mass hair_color skin_color eye_color birth_year sex   gender
#>   <chr>      <int> <dbl> <chr>      <chr>      <chr>          <dbl> <chr> <chr> 
#> 1 R2-D2         96    32 NA         white, bl… red               33 none  mascu…
#> 2 Palpatine    170    75 grey       pale       yellow            82 male  mascu…
#> 3 Padmé Am…    185    45 brown      light      brown             46 fema… femin…
#> 4 Jar Jar …    196    66 none       orange     orange            52 male  mascu…
#> # ℹ 7 more rows
#> # ℹ 5 more variables: homeworld <chr>, species <chr>, films <list>,
#> #   vehicles <list>, starships <list>
…
# starwars from Tatooine *OR* Alderaan
filter(starwars, homeworld == "Tatooine" | homeworld == "Alderaan")

# starwars from Tatooine OR Alderaan AND that are > 100 OR < 150 cm
filter(starwars, homeworld == "Tatooine" | homeworld == "Alderaan" & height > 100 | height < 150)

Sometimes you want to see all of the data that do not meet a
criteria. For example, maybe you don’t want to know what starwars
characters are not from Tatooine. You can use the logical negation
command !=. This command can be read as “not equal to”.

# Not Tatooine
filter(starwars, homeworld != "Tatooine")
#> # A tibble: 67 × 14
#>   name      height  mass hair_color skin_color eye_color birth_year sex   gender
#>   <chr>      <int> <dbl> <chr>      <chr>      <chr>          <dbl> <chr> <chr> 
#> 1 R2-D2         96    32 NA         white, bl… red               33 none  mascu…
#> 2 Leia Org…    150    49 brown      light      brown             19 fema… femin…
#> 3 Obi-Wan …    182    77 auburn, w… fair       blue-gray         57 male  mascu…
#> 4 Wilhuff …    180    NA auburn, g… fair       blue              64 male  mascu…
#> # ℹ 63 more rows
#> # ℹ 5 more variables: homeworld <chr>, species <chr>, films <list>,
#> #   vehicles <list>, starships <list>
…
Null values like NA are special

We don’t want to accidentally say that two “missing” things are the
same

We don’t know if they are

So use special commands

is.na() checks if the value is NA

Combine this with ! for “not”

filter(starwars, !is.na(hair_color))
#> # A tibble: 82 × 14
#>   name      height  mass hair_color skin_color eye_color birth_year sex   gender
#>   <chr>      <int> <dbl> <chr>      <chr>      <chr>          <dbl> <chr> <chr> 
#> 1 Luke Sky…    172    77 blond      fair       blue            19   male  mascu…
#> 2 Darth Va…    202   136 none       white      yellow          41.9 male  mascu…
#> 3 Leia Org…    150    49 brown      light      brown           19   fema… femin…
#> 4 Owen Lars    178   120 brown, gr… light      blue            52   male  mascu…
#> # ℹ 78 more rows
#> # ℹ 5 more variables: homeworld <chr>, species <chr>, films <list>,
#> #   vehicles <list>, starships <list>
…
Arrange rows with arrange()

Change order of rows based on values in a column

arrange() has a similar syntax as filter()
but instead of selecting rows, it reorders them. It takes a data frame
as the first argument, and then column name(s) to order by as subsequent
arguments. The data will be arranged by the first column name provided,
with ties being broken by subsequent columns:

# arrange by homeworld
arrange(starwars, homeworld)
#> # A tibble: 87 × 14
#>   name      height  mass hair_color skin_color eye_color birth_year sex   gender
#>   <chr>      <int> <dbl> <chr>      <chr>      <chr>          <dbl> <chr> <chr> 
#> 1 Leia Org…    150    49 brown      light      brown             19 fema… femin…
#> 2 Bail Pre…    191    NA black      tan        brown             67 male  mascu…
#> 3 Raymus A…    188    79 brown      light      brown             NA male  mascu…
#> 4 Ratts Ty…     79    15 none       grey, blue unknown           NA male  mascu…
#> # ℹ 83 more rows
#> # ℹ 5 more variables: homeworld <chr>, species <chr>, films <list>,
#> #   vehicles <list>, starships <list>

# arrange by homeworld, then height
arrange(starwars, homeworld, height)
#> # A tibble: 87 × 14
#>   name      height  mass hair_color skin_color eye_color birth_year sex   gender
#>   <chr>      <int> <dbl> <chr>      <chr>      <chr>          <dbl> <chr> <chr> 
#> 1 Leia Org…    150    49 brown      light      brown             19 fema… femin…
#> 2 Raymus A…    188    79 brown      light      brown             NA male  mascu…
#> 3 Bail Pre…    191    NA black      tan        brown             67 male  mascu…
#> 4 Ratts Ty…     79    15 none       grey, blue unknown           NA male  mascu…
#> # ℹ 83 more rows
#> # ℹ 5 more variables: homeworld <chr>, species <chr>, films <list>,
#> #   vehicles <list>, starships <list>

The default order is from smallest to largest, numeric to character,
and a to z. To reverse this order, use desc() to order a
column in descending order:

arrange(starwars, desc(homeworld))
#> # A tibble: 87 × 14
#>   name      height  mass hair_color skin_color eye_color birth_year sex   gender
#>   <chr>      <int> <dbl> <chr>      <chr>      <chr>          <dbl> <chr> <chr> 
#> 1 Zam Wese…    168    55 blonde     fair, gre… yellow            NA fema… femin…
#> 2 Dud Bolt      94    45 none       blue, grey yellow            NA male  mascu…
#> 3 Tion Med…    206    80 none       grey       black             NA male  mascu…
#> 4 Sly Moore    178    48 none       pale       white             NA NA    NA    
#> # ℹ 83 more rows
#> # ℹ 5 more variables: homeworld <chr>, species <chr>, films <list>,
#> #   vehicles <list>, starships <list>
…
There are a number of helper functions you can use within
select(), like starts_with(),
ends_with(), matches() and
contains(). These let you quickly match larger blocks of
variables that meet some criterion. See ?select for more
details.

The order you write the arguments in select() are
retained in the output. This can be helpful if you want to quickly
compare the values in two columns which do not normally appear next to
each other.

select(starwars, name, homeworld, eye_color)
#> # A tibble: 87 × 3
#>   name           homeworld eye_color
#>   <chr>          <chr>     <chr>    
#> 1 Luke Skywalker Tatooine  blue     
#> 2 C-3PO          Tatooine  yellow   
#> 3 R2-D2          Naboo     red      
#> 4 Darth Vader    Tatooine  yellow   
#> # ℹ 83 more rows
…
Many columns to more columns

Data analysis often requires the creation of new variable columns
based on values within your data. The mutate() function
allows you to do this. For example, let’s calculate a new variable
called bmi, which looks at how height and mass in one
variable.

# make new column called "bmi"
d2 <- mutate(starwars,
  bmi = mass / height^2)

# select new columns in d2, and columns used to calculate them
select(d2, mass, height, bmi)
#> # A tibble: 87 × 3
#>    mass height     bmi
#>   <dbl>  <int>   <dbl>
#> 1    77    172 0.00260
#> 2    75    167 0.00269
#> 3    32     96 0.00347
#> 4   136    202 0.00333
#> # ℹ 83 more rows
…
These verbs are useful on their own, but when used in conjuction with
the group_by() function, the awesomeness of
dplyr starts to shine through. It organizes a dataset into
specified groups of rows. Verbs are then applied group-by-group within
the dataset. Conveniently, this is accomplished using the exact same
syntax as above.

Here, we will group the data by homeworld and then
summarize the mean height:

# make a new object which contains a "grouping variable"
home_group <- group_by(starwars, homeworld)
summarize(home_group,
          mean_height = mean(height, na.rm = TRUE))
#> # A tibble: 49 × 2
#>   homeworld   mean_height
#>   <chr>             <dbl>
#> 1 Alderaan           176.
#> 2 Aleen Minor         79 
#> 3 Bespin             175 
#> 4 Bestine IV         180 
#> # ℹ 45 more rows

The output now contains 1 row per world

Notice that if we print out the home_group object that
it has the same dimensions as the original, but there is now a new line
at the top which specifies the grouping variable:

home_group
#> # A tibble: 87 × 14
#> # Groups:   homeworld [49]
#>   name      height  mass hair_color skin_color eye_color birth_year sex   gender
#>   <chr>      <int> <dbl> <chr>      <chr>      <chr>          <dbl> <chr> <chr> 
#> 1 Luke Sky…    172    77 blond      fair       blue            19   male  mascu…
#> 2 C-3PO        167    75 NA         gold       yellow         112   none  mascu…
#> 3 R2-D2         96    32 NA         white, bl… red             33   none  mascu…
#> 4 Darth Va…    202   136 none       white      yellow          41.9 male  mascu…
#> # ℹ 83 more rows
#> # ℹ 5 more variables: homeworld <chr>, species <chr>, films <list>,
#> #   vehicles <list>, starships <list>

Using n() to get counts

Another common data summarization task is to get the number of
observations within a data set. For example, let’s say we wanted to know
how many starwars each carrier was scheduled to operate. For this, we
can use n(), which is a special function inside of the
summary() function.

summarize(home_group, count = n())
#> # A tibble: 49 × 2
#>   homeworld   count
#>   <chr>       <int>
#> 1 Alderaan        3
#> 2 Aleen Minor     1
#> 3 Bespin          1
#> 4 Bestine IV      1
#> # ℹ 45 more rows
…
It is helpful to say “then” when you see a %>%
operator. e.g. take object starwars, then group by
year, month and day, then select variables arr_delay and
dep_delay then summarize … etc.

The pipe operator in combination with dplyr allows you
to quickly examine your data and explore interesting results. One of my
favorite aspects of this is you can answer interesting questions almost
immediately.

“I wonder what the smallest mass character is?”

starwars %>% 
  arrange(mass)
#> # A tibble: 87 × 14
#>   name      height  mass hair_color skin_color eye_color birth_year sex   gender
#>   <chr>      <int> <dbl> <chr>      <chr>      <chr>          <dbl> <chr> <chr> 
#> 1 Ratts Ty…     79    15 none       grey, blue unknown           NA male  mascu…
#> 2 Yoda          66    17 white      green      brown            896 male  mascu…
#> 3 Wicket S…     88    20 brown      brown      brown              8 male  mascu…
#> 4 R2-D2         96    32 NA         white, bl… red               33 none  mascu…
#> # ℹ 83 more rows
#> # ℹ 5 more variables: homeworld <chr>, species <chr>, films <list>,
#> #   vehicles <list>, starships <list>

If you want to also know the homeworld:

starwars %>% 
  arrange(mass) %>%
  select(name, mass, homeworld)
#> # A tibble: 87 × 3
#>   name                   mass homeworld  
#>   <chr>                 <dbl> <chr>      
#> 1 Ratts Tyerel             15 Aleen Minor
#> 2 Yoda                     17 NA         
#> 3 Wicket Systri Warrick    20 Endor      
#> 4 R2-D2                    32 Naboo      
#> # ℹ 83 more rows

What homeworld has the largest average mass?

starwars %>% 
  group_by(homeworld) %>%
  summarise(mean_mass = mean(mass)) %>%
  arrange(desc(mean_mass))
#> # A tibble: 49 × 2
#>   homeworld mean_mass
#>   <chr>         <dbl>
#> 1 Nal Hutta      1358
#> 2 Kalee           159
#> 3 Kashyyyk        124
#> 4 Trandosha       113
#> # ℹ 45 more rows
…
