Lab 08: t-tests • ENVS475
…
Data Wrangling

Luckily, there is a special helper function called
diff() that we can use inside of mutate().
First, we need to group the data so that it uses the correct numbers.
Here, we want to know what the effect is within plots, so we will use
group_by(plot_number).

caterpillar %>%
  group_by(plot_number) %>%
  mutate(difference = -diff(caterpillar_count))

## # A tibble: 24 × 4
## # Groups:   plot_number [12]
##    plot_number treatment    caterpillar_count difference
##          <int> <chr>                    <int>      <int>
##  1           1 control                     23          4
##  2           1 bt_herbicide                19          4
##  3           2 control                     18          0
##  4           2 bt_herbicide                18          0
##  5           3 control                     29          5
##  6           3 bt_herbicide                24          5
##  7           4 control                     22         -1
##  8           4 bt_herbicide                23         -1
##  9           5 control                     33          2
## 10           5 bt_herbicide                31          2
## # ℹ 14 more rows
…
