Lab 05: Point Estimates and Confidence Intervals • ENVS475
…
3. mutate the summarized data to calculate 95 and 99%
confidence intervals.

4. select only variables of interest

5. Plot confidence intervals in ggplot()

But first, I’m going to make bt_samp a tibble to shorten
the display output in this lab.

bt_samp %>%
  as_tibble()

## # A tibble: 130 × 3
##    body_temp sex   heart_rate
##        <dbl> <chr>      <dbl>
##  1      96.3 male          70
##  2      96.7 male          71
##  3      96.9 male          74
##  4      97   male          80
##  5      97.1 male          73
##  6      97.1 male          75
##  7      97.1 male          82
##  8      97.2 male          64
##  9      97.3 male          69
## 10      97.4 male          70
## # ℹ 120 more rows
Now I’m going to perform steps 1-3 one at a time in the following
code blocks.

* I’m presenting these blocks one at a time to emphasize the iterative
process when figuring out to code your problems

* in reality, I would run these and build upon each step, but my final
script would just have one call to perform the whole thing

# step 1, group the data by sex
bt_samp %>%
  as_tibble() %>%
  group_by(sex)

## # A tibble: 130 × 3
## # Groups:   sex [2]
##    body_temp sex   heart_rate
##        <dbl> <chr>      <dbl>
##  1      96.3 male          70
##  2      96.7 male          71
##  3      96.9 male          74
##  4      97   male          80
##  5      97.1 male          73
##  6      97.1 male          75
##  7      97.1 male          82
##  8      97.2 male          64
##  9      97.3 male          69
## 10      97.4 male          70
## # ℹ 120 more rows
…
