Lab 02: Introduction to R • ENVS475
…
starwars[1,1]
#> # A tibble: 1 × 1
#>   name          
#>   <chr>         
#> 1 Luke Skywalker

The row and column numbers have to put inside of square brackets
following the name of the data frame object. The row number always comes
first and the column number second. If you want to select all rows of a
specific column, you just leave the row# blank. For
example, if we wanted a vector containing just the home worlds (the 10th
column) of all the characters:

starwars[,10]
#> # A tibble: 87 × 1
#>    homeworld
#>    <chr>    
#>  1 Tatooine 
#>  2 Tatooine 
#>  3 Naboo    
#>  4 Tatooine 
#>  5 Alderaan 
#>  6 Tatooine 
#>  7 Tatooine 
#>  8 Tatooine 
#>  9 Tatooine 
#> 10 Stewjon  
#> # ℹ 77 more rows
…
